OH0011568422,151-11-3333
OH0011568533,151-11-3333
OH0011568989,223-22-1345
OH0011569013,223-22-1345
OH0011569719,151-11-3333
OH0011569797,223-22-1345
OH0011569923,223-22-1345
OH0011570088,223-22-1345
OH0011570221,151-11-3333
OH0011570493,223-22-1345
OH0011570668,223-22-1345
OH0011570885,223-22-1345
OH0011572141,223-22-1345
OH0011572537,223-22-1345
OH0011572870,151-11-3333
OH0011573462,151-11-3333
OH0011573611,223-22-1345
OH0011573758,223-22-1345
OH0011573973,223-22-1345
OH0011574136,151-11-3333
OH0011574194,151-11-3333
OH0011574382,151-11-3333
OH0011574488,151-11-3333
OH0011574505,223-22-1345
OH0011574733,223-22-1345
OH0011574898,151-11-3333
OH0011575026,151-11-3333
OH0011575124,223-22-1345
OH0011575284,223-22-1345
OH0011575331,223-22-1345
OH0011575367,223-22-1345
OH0011575481,223-22-1345
OH0011575698,223-22-1345
OH0011576001,223-22-1345
OH0011576070,151-11-3333
OH0011576133,151-11-3333
OH0011576214,151-11-3333
OH0011577144,223-22-1345
OH0011577743,223-22-1345
OH0011577874,223-22-1345
OH0011577969,151-11-3333
OH0011578027,223-22-1345
OH0011578425,151-11-3333
OH0011578507,151-11-3333
OH0011578548,223-22-1345
OH0011578584,223-22-1345
OH0011578683,151-11-3333
OH0011578756,223-22-1345
OH0011578760,223-22-1345
OH0011579239,151-11-3333
OH0011579305,151-11-3333
OH0011579450,151-11-3333
OH0011579745,223-22-1345
OH0011579872,151-11-3333
OH0011580015,151-11-3333
OH0011580375,151-11-3333
OH0011580761,151-11-3333
OH0011580878,151-11-3333
OH0011581062,223-22-1345
OH0011581162,223-22-1345
OH0011581341,151-11-3333
OH0011581529,151-11-3333
OH0011582121,223-22-1345
OH0011582288,151-11-3333
OH0011582317,223-22-1345
OH0011582364,223-22-1345
OH0011582879,223-22-1345
OH0011582939,151-11-3333
OH0011583193,151-11-3333
OH0011583473,151-11-3333
OH0011584029,151-11-3333
OH0011584333,223-22-1345
OH0011584667,223-22-1345
OH0011584707,151-11-3333
OH0011584779,151-11-3333
OH0011584835,223-22-1345
OH0011585072,151-11-3333
OH0011585090,223-22-1345
OH0011586299,151-11-3333
OH0011586826,223-22-1345
OH0011586902,223-22-1345
OH0011587639,223-22-1345
OH0018063825,223-22-1345
OH0018537301,223-22-1345
OH0018730433,223-22-1345
OH0019008001,223-22-1345
OH0019081883,223-22-1345
OH0019173098,151-11-3333
OH0019240497,223-22-1345
OH0019255990,223-22-1345
OH0019365275,151-11-3333
OH0019511354,223-22-1345
OH0019531814,151-11-3333
OH0019541449,223-22-1345
OH0019868815,151-11-3333
OH0020120262,223-22-1345
OH0020350538,223-22-1345
OH0020423839,223-22-1345
OH0020540263,151-11-3333
OH0020820063,151-11-3333
OH0021021265,151-11-3333
OH0021105420,223-22-1345
OH0021162761,223-22-1345
OH0021591902,151-11-3333
OH0021719733,151-11-3333
OH0021781617,223-22-1345
OH0021823347,223-22-1345
OH0021838454,223-22-1345
OH0021880171,151-11-3333
OH0022103339,151-11-3333
OH0022254570,223-22-1345
OH0022375206,223-22-1345
OH0022717616,223-22-1345
OH0022767802,223-22-1345
OH0022881752,223-22-1345
OH0023022229,151-11-3333
OH0023109059,223-22-1345
OH0023148729,223-22-1345
OH0023155071,151-11-3333
OH0023179453,151-11-3333
OH0023189134,223-22-1345
OH0023247131,223-22-1345
OH0023270137,223-22-1345
OH0023300856,223-22-1345
OH0023375327,151-11-3333
OH0023381456,151-11-3333
OH0023460486,151-11-3333
OH0023461988,223-22-1345
OH0023481228,151-11-3333
OH0023488346,223-22-1345
OH0023564940,223-22-1345
OH0023867442,223-22-1345
OH0023872708,223-22-1345
OH0023916860,223-22-1345
OH0024018307,151-11-3333
OH0024195167,151-11-3333
OH0024207397,151-11-3333
OH0024239463,223-22-1345
OH0024423485,151-11-3333
OH0024458704,151-11-3333
OH0024478798,151-11-3333
OH0024478802,223-22-1345
OH0024500322,223-22-1345
OH0024508757,151-11-3333
OH0024556966,223-22-1345
OH0024608078,223-22-1345
OH0024725812,151-11-3333
OH0024859916,151-11-3333
OH0024939125,223-22-1345